<svg width="24" height="24" viewBox="0 0 24 24" fill="none" xmlns="http://www.w3.org/2000/svg">
<path d="M11.9333 1.24799C11.9641 1.18394 12.0411 1.18394 12.0564 1.24799L20.8736 16.9395C20.889 16.9715 20.8737 17.0034 20.8583 17.0355L20.8582 17.0356L15.7803 22.9759C15.7649 22.9919 15.7341 23.0079 15.7188 23.0079H11.5948C11.5179 23.0079 11.4871 22.9279 11.5333 22.8798L14.2877 19.6455L16.8728 16.6353C16.9036 16.6033 16.9036 16.5712 16.8882 16.5392L11.9949 7.79675L10.1483 4.49837C10.133 4.48235 10.133 4.45033 10.1483 4.41831L11.9333 1.24799Z" fill="currentColor"/>
<path d="M10.0253 23.0159L10.0253 23.0159C10.0137 23.0239 10.0022 23.032 9.99452 23.0399H8.27105C8.24034 23.0399 8.22495 23.024 8.20959 23.008L8.2095 23.0079L3.13154 17.0676C3.11615 17.0356 3.11615 17.0035 3.13154 16.9715L9.4559 5.66722C9.48667 5.61919 9.56364 5.61919 9.5944 5.66722L11.364 8.83752C11.3794 8.85356 11.3794 8.88557 11.364 8.91758L7.08619 16.5552C7.07081 16.5872 7.08619 16.6192 7.10158 16.6513L9.65593 19.6295C9.67137 19.6455 9.70214 19.6615 9.71752 19.6615H12.7335C12.8105 19.6615 12.8412 19.7415 12.7951 19.7896L10.056 22.9919C10.0483 22.9999 10.0368 23.0079 10.0253 23.0159Z" fill="currentColor"/>
</svg>
