<svg width="23" height="22" viewBox="0 0 23 22" fill="none" xmlns="http://www.w3.org/2000/svg">
<rect x="0.667969" width="21.3333" height="21.3333" rx="10.6667" fill="currentColor"/>
<g clip-path="url(#clip0)">
<path d="M7.89498 11.9702C7.89352 12.0162 7.89562 12.063 7.90153 12.1103L8.09184 13.6328C8.16567 14.2235 8.66777 14.6667 9.26301 14.6667C9.91487 14.6667 10.4433 14.1383 10.4433 13.4864V12.1257C10.1526 12.055 9.8548 12.0138 9.55441 12.0029V13.4864C9.55441 13.6474 9.42395 13.7778 9.26301 13.7778C9.11606 13.7778 8.99209 13.6684 8.97387 13.5226L8.78355 12.0001C9.88441 12.0001 8.77499 12 8.22103 12C8.10966 12 8.00068 11.9898 7.89498 11.9702Z" fill="#FCFCFD"/>
<path fill-rule="evenodd" clip-rule="evenodd" d="M9.39612 9.33333H8.22309C7.73217 9.33333 7.3342 9.7313 7.3342 10.2222C7.3342 10.7131 7.73217 11.1111 8.22309 11.1111H9.39612C10.2241 11.1111 11.0407 11.3039 11.7813 11.6742L14.2466 12.9068C14.5421 13.0546 14.8898 12.8397 14.8898 12.5093V7.93515C14.8898 7.60476 14.5421 7.38987 14.2466 7.53763L11.7813 8.77027C11.0407 9.14055 10.2241 9.33333 9.39612 9.33333ZM8.22309 8.44444C7.24125 8.44444 6.44531 9.24038 6.44531 10.2222C6.44531 11.2041 7.24125 12 8.22309 12H9.39612C10.0861 12 10.7666 12.1606 11.3837 12.4692L13.849 13.7019C14.7356 14.1451 15.7786 13.5005 15.7786 12.5093V7.93515C15.7786 6.94398 14.7356 6.29931 13.849 6.74258L11.3837 7.97523C10.7666 8.28379 10.0861 8.44444 9.39612 8.44444H8.22309Z" fill="#FCFCFD"/>
<path d="M10.8889 12.2586C10.6008 12.1558 10.3029 12.083 10 12.0414V8.4032C10.3029 8.36159 10.6008 8.28883 10.8889 8.18604V12.2586Z" fill="#FCFCFD"/>
<path d="M15.7773 11.0735C16.0363 10.982 16.2218 10.735 16.2218 10.4448V10.0003C16.2218 9.71004 16.0363 9.4631 15.7773 9.37158V11.0735Z" fill="#FCFCFD"/>
</g>
<defs>
<clipPath id="clip0">
<rect width="10.6667" height="10.6667" fill="white" transform="translate(6 5.3335)"/>
</clipPath>
</defs>
</svg>
